<?xml version="1.0" encoding="UTF-8" standalone="no"?>
<!-- Created with Inkscape (http://www.inkscape.org/) -->

<svg
   xmlns:dc="http://purl.org/dc/elements/1.1/"
   xmlns:cc="http://creativecommons.org/ns#"
   xmlns:rdf="http://www.w3.org/1999/02/22-rdf-syntax-ns#"
   xmlns:svg="http://www.w3.org/2000/svg"
   xmlns="http://www.w3.org/2000/svg"
   xmlns:xlink="http://www.w3.org/1999/xlink"
   xmlns:sodipodi="http://sodipodi.sourceforge.net/DTD/sodipodi-0.dtd"
   xmlns:inkscape="http://www.inkscape.org/namespaces/inkscape"
   width="256px"
   height="256px"
   viewBox="0 0 256 256"
   version="1.1"
   id="SVGRoot"
   enable-background="new"
   inkscape:version="0.92.3 (2405546, 2018-03-11)"
   sodipodi:docname="liqgame2.svg">
  <sodipodi:namedview
     id="base"
     pagecolor="#ffffff"
     bordercolor="#666666"
     borderopacity="1.0"
     inkscape:pageopacity="0.0"
     inkscape:pageshadow="2"
     inkscape:zoom="2"
     inkscape:cx="109.68481"
     inkscape:cy="148.33662"
     inkscape:document-units="px"
     inkscape:current-layer="layer1"
     showgrid="false"
     inkscape:window-width="1783"
     inkscape:window-height="1080"
     inkscape:window-x="1334"
     inkscape:window-y="226"
     inkscape:window-maximized="0"
     inkscape:grid-bbox="true" />
  <defs
     id="defs815">
    <linearGradient
       id="linearGradient5208"
       inkscape:collect="always">
      <stop
         id="stop5204"
         offset="0"
         style="stop-color:#ffd200;stop-opacity:1" />
      <stop
         id="stop5206"
         offset="1"
         style="stop-color:#ffc600;stop-opacity:1" />
    </linearGradient>
    <linearGradient
       inkscape:collect="always"
       id="linearGradient5138">
      <stop
         style="stop-color:#7d5106;stop-opacity:1"
         offset="0"
         id="stop5134" />
      <stop
         style="stop-color:#bc6c04;stop-opacity:1"
         offset="1"
         id="stop5136" />
    </linearGradient>
    <radialGradient
       inkscape:collect="always"
       xlink:href="#linearGradient5138"
       id="radialGradient5142"
       cx="126"
       cy="125.75"
       fx="126"
       fy="125.75"
       r="55"
       gradientUnits="userSpaceOnUse"
       gradientTransform="translate(0.55007935,-1.4499969)" />
    <radialGradient
       gradientTransform="matrix(0.45000001,0,0,0.45000001,69.850078,67.712497)"
       inkscape:collect="always"
       xlink:href="#linearGradient5208"
       id="radialGradient5142-5"
       cx="126"
       cy="125.75"
       fx="126"
       fy="125.75"
       r="55"
       gradientUnits="userSpaceOnUse" />
    <linearGradient
       inkscape:collect="always"
       xlink:href="#linearGradient5208"
       id="linearGradient5220"
       x1="117.4994"
       y1="135.75"
       x2="129.5006"
       y2="135.75"
       gradientUnits="userSpaceOnUse"
       gradientTransform="matrix(1,0,0,0.81478611,3.0500779,13.692788)" />
    <linearGradient
       inkscape:collect="always"
       xlink:href="#linearGradient5208"
       id="linearGradient5222"
       x1="35.914543"
       y1="125"
       x2="215.58545"
       y2="125"
       gradientUnits="userSpaceOnUse"
       gradientTransform="matrix(0.74359619,0,0,1,33.042859,-0.6999939)" />
  </defs>
  <metadata
     id="metadata818">
    <rdf:RDF>
      <cc:Work
         rdf:about="">
        <dc:format>image/svg+xml</dc:format>
        <dc:type
           rdf:resource="http://purl.org/dc/dcmitype/StillImage" />
        <dc:title></dc:title>
      </cc:Work>
    </rdf:RDF>
  </metadata>
  <g
     id="layer1"
     inkscape:groupmode="layer"
     inkscape:label="Calque 1"
     style="opacity:1">
    <circle
       style="opacity:1;fill:#0ea539;fill-opacity:1;stroke:#321300;stroke-width:6.99029303;stroke-linecap:round;stroke-linejoin:round;stroke-miterlimit:4;stroke-dasharray:none;stroke-opacity:1"
       id="path5077"
       cx="126.55008"
       cy="124.3"
       r="116.50485" />
    <circle
       style="opacity:1;fill:#0ea539;fill-opacity:1;stroke:#e8c931;stroke-width:2.52429295;stroke-linecap:round;stroke-linejoin:round;stroke-miterlimit:4;stroke-dasharray:none;stroke-opacity:1"
       id="path5077-3"
       cx="126.55008"
       cy="124.3"
       r="111.23785" />
    <ellipse
       style="opacity:1;fill:#0ea539;fill-opacity:1;stroke:#000000;stroke-width:18.05599976;stroke-linecap:butt;stroke-linejoin:round;stroke-miterlimit:4;stroke-dasharray:18.056, 18.056;stroke-dashoffset:19.86159897;stroke-opacity:1"
       id="path5077-3-6"
       cx="126.55008"
       cy="124.3"
       rx="103.82201"
       ry="103.822" />
    <ellipse
       style="opacity:1;fill:none;fill-opacity:1;stroke:#ff0000;stroke-width:18.05599976;stroke-linecap:butt;stroke-linejoin:round;stroke-miterlimit:4;stroke-dasharray:18.05599976, 18.05599976;stroke-dashoffset:37.91759872;stroke-opacity:1"
       id="path5077-3-6-7"
       cx="126.55008"
       cy="124.3"
       rx="103.82201"
       ry="103.822" />
    <circle
       style="opacity:1;fill:url(#radialGradient5142);fill-opacity:1;stroke:none;stroke-width:22.0684433;stroke-linecap:butt;stroke-linejoin:round;stroke-miterlimit:4;stroke-dasharray:22.06844416, 22.06844416;stroke-dashoffset:37.91759872;stroke-opacity:1"
       id="path5124"
       cx="126.55008"
       cy="124.3"
       r="55" />
    <path
       style="fill:none;stroke:url(#linearGradient5220);stroke-width:10.83186054;stroke-linecap:round;stroke-linejoin:round;stroke-miterlimit:4;stroke-dasharray:none;stroke-opacity:1"
       d="M 126.55008,64.209527 V 184.39048"
       id="path5210"
       inkscape:connector-curvature="0" />
    <circle
       style="opacity:1;fill:url(#radialGradient5142-5);fill-opacity:1;stroke:none;stroke-width:9.93079948;stroke-linecap:butt;stroke-linejoin:round;stroke-miterlimit:4;stroke-dasharray:9.93079987, 9.93079987;stroke-dashoffset:37.91759872;stroke-opacity:1"
       id="path5124-6"
       cx="126.55008"
       cy="124.3"
       r="24.75" />
    <path
       style="fill:none;stroke:url(#linearGradient5222);stroke-width:10.34784317;stroke-linecap:round;stroke-linejoin:round;stroke-miterlimit:4;stroke-dasharray:none;stroke-opacity:1"
       d="M 64.273899,124.3 H 188.82626"
       id="path5212"
       inkscape:connector-curvature="0" />
    <g
       aria-label="ꜩ"
       transform="translate(70.409454,-8.4496969)"
       style="font-style:normal;font-variant:normal;font-weight:normal;font-stretch:normal;font-size:40px;line-height:1.25;font-family:Code2003;-inkscape-font-specification:Code2003;letter-spacing:0px;word-spacing:0px;fill:#a31831;fill-opacity:1;stroke:none"
       id="flowRoot4581">
      <path
         inkscape:connector-curvature="0"
         d="m 59.8125,149.80048 q -3.671875,0 -5.351563,-1.75781 -1.679687,-1.75781 -1.679687,-3.78906 0,-0.74219 0.292969,-1.25 0.292968,-0.50782 0.800781,-0.80079 0.507812,-0.29296 1.25,-0.29296 0.742187,0 1.25,0.29296 0.507812,0.29297 0.800781,0.80079 0.292969,0.50781 0.292969,1.25 0,0.89843 -0.429688,1.46484 -0.429687,0.56641 -1.015625,0.74219 0.507813,0.70312 1.601563,0.99609 1.09375,0.3125 2.1875,0.3125 1.523437,0 2.753906,-0.82031 1.230469,-0.82031 1.816406,-2.42188 0.585938,-1.60156 0.585938,-3.63281 0,-2.20703 -0.644531,-3.76953 -0.625,-1.58203 -1.855469,-2.34375 -1.230469,-0.76172 -2.65625,-0.76172 -0.9375,0 -2.34375,0.78125 L 55.75,135.65986 v -0.85938 l 7.734375,-10.3125 H 52.78125 v 10.70313 q 0,1.32812 0.585937,2.1875 0.585938,0.85937 1.796875,0.85937 0.9375,0 1.796875,-0.625 0.859375,-0.625 1.484375,-1.52344 0.07813,-0.17578 0.195313,-0.2539 0.117187,-0.0977 0.253906,-0.0977 0.214844,0 0.507813,0.21484 0.273437,0.3125 0.273437,0.72266 -0.01953,0.19531 -0.09766,0.54688 -0.664063,1.48437 -1.835938,2.26562 -1.171875,0.78125 -2.578125,0.78125 -3.476562,0 -4.804687,-1.36719 -1.328125,-1.36718 -1.328125,-3.71093 V 124.48798 H 43.5625 v -1.99219 h 5.46875 v -4.53125 l -1.25,-1.25 v -1.01562 h 3.632812 l 1.367188,0.70312 v 6.09375 l 14.140625,-0.0391 1.40625,1.40625 -8.671875,8.67188 q 0.78125,-0.3125 1.640625,-0.39063 1.40625,0 3.164062,0.89844 1.777344,0.8789 2.734375,2.42187 0.957032,1.52344 1.230469,2.92969 0.292969,1.40625 0.292969,2.5 0,2.5 -1.054688,4.64844 -1.054687,2.14844 -3.203125,3.20312 -2.148437,1.05469 -4.648437,1.05469 z"
         id="path4661" />
    </g>
  </g>
</svg>
